^C:\USERS\KATEPC\DESKTOP\ПОЛЕВОЙ\KURSOVAYA_RABOTA\KURSOVAYA_RABOTA_PROJECT\BUILD\CMAKEFILES\3.16.4\COMPILERIDCXX\CMAKECXXCOMPILERID.CPP
C:\PROGRAM FILES (X86)\MICROSOFT VISUAL STUDIO\2017\COMMUNITY\VC\TOOLS\MSVC\14.16.27023\BIN\HOSTX86\X64\1049\CLUI.DLL
C:\WINDOWS\GLOBALIZATION\SORTING\SORTDEFAULT.NLS
C:\WINDOWS\SYSTEM32\TZRES.DLL
